{
  "reportName" : "Allure Report",
  "testRuns" : [ ],
  "statistic" : {
    "failed" : 0,
    "broken" : 8,
    "skipped" : 0,
    "passed" : 0,
    "unknown" : 0,
    "total" : 8
  },
  "time" : {
    "start" : 1620019855899,
    "stop" : 1620019857468,
    "duration" : 1569,
    "minDuration" : 1,
    "maxDuration" : 992,
    "sumDuration" : 1166
  }
}